[
  {
    "anonymous": false,
    "inputs": [
      {
        "indexed": true,
        "internalType": "address",
        "name": "previousOwner",
        "type": "address"
      },
      {
        "indexed": true,
        "internalType": "address",
        "name": "newOwner",
        "type": "address"
      }
    ],
    "name": "OwnershipTransferred",
    "type": "event"
  },
  {
    "inputs": [
      {
        "internalType": "uint256",
        "name": "bookingId",
        "type": "uint256"
      },
      {
        "internalType": "uint256",
        "name": "rentalId",
        "type": "uint256"
      },
      {
        "internalType": "string",
        "name": "bookerUid",
        "type": "string"
      },
      {
        "internalType": "uint256",
        "name": "begin",
        "type": "uint256"
      },
      {
        "internalType": "uint256",
        "name": "end",
        "type": "uint256"
      }
    ],
    "name": "addBooking",
    "outputs": [],
    "stateMutability": "nonpayable",
    "type": "function"
  },
  {
    "inputs": [
      {
        "internalType": "uint256",
        "name": "",
        "type": "uint256"
      }
    ],
    "name": "bookingsById",
    "outputs": [
      {
        "internalType": "uint256",
        "name": "rentalId",
        "type": "uint256"
      },
      {
        "internalType": "string",
        "name": "bookerUid",
        "type": "string"
      },
      {
        "internalType": "uint256",
        "name": "begin",
        "type": "uint256"
      },
      {
        "internalType": "uint256",
        "name": "end",
        "type": "uint256"
      }
    ],
    "stateMutability": "view",
    "type": "function"
  },
  {
    "inputs": [],
    "name": "owner",
    "outputs": [
      {
        "internalType": "address",
        "name": "",
        "type": "address"
      }
    ],
    "stateMutability": "view",
    "type": "function"
  },
  {
    "inputs": [],
    "name": "renounceOwnership",
    "outputs": [],
    "stateMutability": "nonpayable",
    "type": "function"
  },
  {
    "inputs": [
      {
        "internalType": "address",
        "name": "newOwner",
        "type": "address"
      }
    ],
    "name": "transferOwnership",
    "outputs": [],
    "stateMutability": "nonpayable",
    "type": "function"
  }
]